…
``` r
# install.packages("remotes")
remotes::install_github("skyphone")
```

## Examples

I’ll read in my own 2020 GitHub contributions from the Skyline API.

``` r
library(skyphone)
md <- sky_get("matt-dray", 2020)
md
#> # A tibble: 366 x 6
#>    user       year  week   day date       count
#>    <chr>     <int> <int> <int> <date>     <int>
#>  1 matt-dray  2020     1     1 2020-01-01     5
#>  2 matt-dray  2020     1     2 2020-01-02     5
#>  3 matt-dray  2020     1     3 2020-01-03     8
#>  4 matt-dray  2020     1     4 2020-01-04     3
#>  5 matt-dray  2020     2     5 2020-01-05     0
#>  6 matt-dray  2020     2     6 2020-01-06     7
#>  7 matt-dray  2020     2     7 2020-01-07    10
#>  8 matt-dray  2020     2     8 2020-01-08     2
#>  9 matt-dray  2020     2     9 2020-01-09     6
#> 10 matt-dray  2020     2    10 2020-01-10     0
#> # … with 356 more rows
```
…
